{
  "current_progress": 10,
  "content": {
    "content_id": "",
    "url": "https://vimeo.com/363863602",
    "preview_url": "https://visualintelligence.blob.core.windows.net/video-summary/prod/2759315/summary.webp",
    "teaser_url": "",
    "rating": 4,
    "type": "Video",
    "title": "Reflex Action",
    "description": "Have you wondered what makes you take your hand away from a hot utensil on the table during a meal? It is almost as if you never even had to think. It is just so instinctive! Learn how a reflex arc works in the human body, where it starts, and where it ends.",
    "learning_map": {
      "lpcode": "",
      "subject": "",
      "subject_code": "",
      "exam_code": "",
      "unit": "",
      "chapter": "",
      "author": "",
      "grade": "",
      "board": "",
      "concept_id": "new_KG1948",
      "format_id": "",
      "lm_name": "",
      "topic_learnpath_name": "cbse--10th cbse--science--biology--control and coordination--animals nervous system",
      "mode": "Normal"
    },
    "watched_duration": 4,
    "views": 0,
    "likes": 0,
    "currency": 100,
    "length": 150,
    "authors": [],
    "owner_info": {
      "copyright": "",
      "copy_logo": ""
    },
    "id": "2759315",
    "category": "In Real Life (IRL)",
    "thumb": "https://cg-production.s3.amazonaws.com/images/4a369687-07e2-4449-a8e1-622f5b091761.webp",
    "bg_thumb": "https://cg-production.s3.amazonaws.com/images/349b5d0a-6370-4577-99e7-7f2b8a3b492d.webp",
    "subject": "Biology",
    "front_page_image_url": "",
    "category_url": "https://imagin8ors-temp-dump.s3-ap-southeast-1.amazonaws.com/subject/cardicons/colour_in_real_life.png",
    "concept_count": 0,
    "annotation_attributes": [
      {
        "id": 946,
        "bundle_id": "b1d6a7d6-0d0d-4d06-900b-6c5e6f2985be",
        "element_type": "Question",
        "element_id": "3409428",
        "annotation_point": "30"
      },
      {
        "id": 947,
        "bundle_id": "b1d6a7d6-0d0d-4d06-900b-6c5e6f2985be",
        "element_type": "Question",
        "element_id": " 3409446",
        "annotation_point": "72"
      },
      {
        "id": 948,
        "bundle_id": "b1d6a7d6-0d0d-4d06-900b-6c5e6f2985be",
        "element_type": "Question",
        "element_id": "3409456",
        "annotation_point": "106"
      }
    ]
  }
}