{
  "scenes": [
    {
      "speak": "",
      "widget": "widget1",
      "type": "score",
      "wait_duration": 0,
      "text": "Congratulations!! John",
      "audio": "intro"
    },
    {
      "speak": "",
      "widget": "widget1",
      "type": "score",
      "wait_duration": 0,
      "text": "You have scored 290 marks out of 300 \n I this were a real exam then your  \nTentative rank : 123 \n Tentative College : IIT Chennai",
      "audio": "achiever"
    },
    {
      "speak": "",
      "widget": "widget1",
      "type": "score",
      "wait_duration": 0,
      "text": "Chapters Covered \n1. abc \n2.  xyz Key Concepts \n1. abbbc \n2. xyz",
      "audio": "Slide05"
    },
    {
      "speak": "",
      "widget": "widget1",
      "type": "score",
      "wait_duration": 0,
      "text": " TQS : 85%",
      "audio": "Slide06"
    },
    {
      "speak": "",
      "widget": "widget1",
      "type": "score",
      "wait_duration": 0,
      "text": "Average Score 75",
      "audio": "Slide07"
    }
  ],
  "video": "performer",
  "image": "performer_anim"
}
