<svg height="32" viewBox="0 0 32 32" width="32" xmlns="http://www.w3.org/2000/svg">
    <g fill="none">
        <path
            d="m16 .75755102c-8.4480942.02883128-15.27638272 7.03540687-15.25760082 15.65593798.01885952 8.6205311 6.87767421 15.5959923 15.32581042 15.5864238 8.4481362-.0095881 15.2917904-7.0005848 15.2917904-15.6211373-.0282105-8.63580821-6.8968609-15.62122448-15.36-15.62122448zm0 26.89960888c-2.9364783.0051835-5.7547103-1.180149-7.8347147-3.2952542-2.08000444-2.1151051-3.25139756-4.9867237-3.25648846-7.9831302-.00028355-.3925784.01894114-.784919.05760316-1.1755102.63119922-5.97244865 5.7251794-10.40120539 11.6041471-10.08876025 5.8789678.31244513 10.494507 5.25722655 10.5142529 11.26427045 0 .3722449 0 .7379592-.0512 1.0971429-.5631208 5.7849285-5.3364773 10.1895303-11.0336 10.1812415z"
            fill="#b71d35" />
        <path
            d="m2.2784 16.3265306c.87388167-.1653117 1.75643399-.2786999 2.6432-.3395918 0-.2546939 0-.5093878.0448-.7640817.63119922-5.97244861 5.7251794-10.40120536 11.6041471-10.08876022 5.8789678.31244514 10.494507 5.25722652 10.5142529 11.26427042 0 .3722449 0 .7379592-.0512 1.0971429.0030647.0282129.0030647.056685 0 .084898 1.5047019-.4593505 2.9555053-1.0856786 4.3264-1.8677551-.114325-5.5995913-3.1475651-10.71159067-7.9571281-13.41035739-4.8095631-2.69876672-10.664762-2.57429395-15.36000003.32653061-4.69523804 2.90082457-7.51719686 8.13729668-7.40287187 13.73688798v.3591837c.53672412-.1702659 1.08410239-.3033577 1.6384-.3983674z"
            fill="#ff3e3b" />
        <path
            d="m16 27.6637037c-2.9386933.0069051-5.7595395-1.178557-7.8411133-3.2952621-2.08157376-2.1167052-3.25309722-4.9909934-3.25648986-7.9896661-.00028355-.3925784.01894114-.784919.05760316-1.1755102.63137733-5.97592372 5.7281708-10.40740449 11.6105482-10.09495895 5.8823773.31244553 10.5007286 5.25995125 10.5206518 11.27046915 0 .3722449 0 .7379592-.0512 1.0971429-.5631433 5.7885367-5.3393563 10.1960447-11.04 10.1877853z"
            fill="#fff" />
        <path
            d="m17.0624 18.122449c-3.0784-.6857143-5.8496-1.7959184-8.1024-2.0506123-1.34443073-.1279481-2.69593441-.1606796-4.0448-.0979591v.4048979c.01662455 6.0117186 4.63402131 10.9624081 10.5174749 11.2766469 5.8834537.3142388 10.9821277-4.1175094 11.6137251-10.0946061-3.2289733 1.0397742-6.6625852 1.2329261-9.984.5616327z"
            fill="#f4f3f9" />
        <path
            d="m16 23.9738888c-1.977455.0034558-3.8752681-.7947931-5.2759404-2.2191517-1.40067234-1.4243586-2.18946774-3.3581503-2.1928596-5.3759616-.00333142-.2639602.00949353-.5278751.0384-.7902041.40308274-4.0416621 3.8421774-7.05021457 7.8180969-6.83934501 3.9759195.21086957 7.0908187 3.56702411 7.0811258 7.62954911 0 .2465103-.0126942.4928509-.0384227.7379592-.3787502 3.8961282-3.5934591 6.8628216-7.4304 6.8571541z"
            fill="#b71d35" />
        <path
            d="m13.4976 17.162449c2.1661016.7548226 4.422268 1.2073563 6.7072 1.3453061 1.0003625.0316905 2.0016393-.0141555 2.9952-.1371429.1130898-.4101598.1901938-.8297731.2304-1.2538775.0257285-.2451083.0384227-.4914489.0384227-.7379592.0096929-4.062525-3.1052063-7.41867954-7.0811258-7.62954911-3.9759195-.21086956-7.41501416 2.79768291-7.8180969 6.83934501v.437551c1.6745446.2168294 3.3247955.5973538 4.928 1.1363266z"
            fill="#ff3e3b" />
        <path
            d="m16 19.5526598c-.8266273.0017271-1.6200729-.331689-2.2057869-.9269069-.5857139-.5952179-.9157175-1.4034802-.9174131-2.2469774-.0063834-.1109249-.0063834-.2221363 0-.3330612.1828564-1.6774913 1.6157235-2.9186049 3.2675358-2.8302579 1.6518122.088347 2.9496727 1.4755134 2.9596642 3.1633191.0065159.1022049.0065159.2047339 0 .3069388-.1580249 1.6280537-1.5007012 2.868186-3.104 2.8669455z"
            fill="#f1f2f2" />
        <path
            d="m16 13.1983632c-1.5979798-.0025966-2.9401253 1.2260409-3.1104 2.8473511-.0063834.1109249-.0063834.2221363 0 .3330612-.0023224.2191078.0169748.4378977.0576.6530612l.5632.1632653c1.6098523.5374792 3.2601807.9393697 4.9344 1.2016327.3814563-.4794985.6152791-1.0634873.672-1.6783674.0065159-.1022049.0065159-.2047338 0-.3069387.0085442-.8491401-.3160563-1.6665033-.9014983-2.2700265-.585442-.6035231-1.3831006-.9430389-2.2153017-.9430389z"
            fill="#fff" />
        <path
            d="m16.0448 17.5608327c-.2880319.0009906-.5653716-.1112737-.7744-.3134858-.2083087-.2119677-.3253843-.4998133-.3253843-.8 0-.3001866.1170756-.5880322.3253843-.8l9.1328-9.59999996c.4340906-.43911114 1.1339094-.43911114 1.568 0 .2083087.21196772.3253843.49981332.3253843.8 0 .30018667-.1170756.58803227-.3253843.8l-9.1264 9.57387756c-.2108056.2187566-.499341.341237-.8.3396082z"
            fill="#8400ff" />
        <path
            d="m24.0192 7.22285714c.3317696.3515924.6158956.74694385.8448 1.17551021.2329002.43813173.5308234.83686066.8832 1.18204081.2640223.24891175.5537152.46787844.864.65306124.1858872.1059604.4187149.0681637.5632-.0914286l4.1856-4.61061223c.0934764-.09987966.1376908-.23752759.1202914-.37449055-.0173993-.13696296-.0945471-.2585577-.2098914-.33081557-.2480789-.16661139-.4834202-.35217732-.704-.55510204-.3529068-.34716267-.650855-.74812815-.8832-1.18857143-.2310695-.42517088-.5150215-.81808526-.8448-1.16897959-.3626922-.36217773-.7851694-.65620944-1.248-.86857143-.2303528-.10257483-.4677948-.18770293-.7104-.25469388-.1674071-.05024013-.3482643.000321-.4672.13061225l-4.128 4.57142857c-.1040215.11228437-.1463949.27006471-.1130028.42077439.033392.15070968.1381614.27454404.2794028.33024602l.3008.12408163c.4674212.20878118.8960923.49818503 1.2672.8555102z"
            fill="#4c00b7" />
    </g>
</svg>